{
  "project_info": {
    "project_number": "837126784767",
    "firebase_url": "https://gl-zoo.firebaseio.com",
    "project_id": "gl-zoo",
    "storage_bucket": "gl-zoo.appspot.com"
  },
  "client": [
    {
      "client_info": {
        "mobilesdk_app_id": "1:837126784767:android:6388a016e7b471d5bf6eca",
        "android_client_info": {
          "package_name": "com.gembiraloka.gl_zoo"
        }
      },
      "oauth_client": [
        {
          "client_id": "837126784767-65e84lov1rqjmgkb39p2mj206i60f183.apps.googleusercontent.com",
          "client_type": 1,
          "android_info": {
            "package_name": "com.gembiraloka.gl_zoo",
            "certificate_hash": "40d3b7a09b022f89991bdc8d429b978f16773fd3"
          }
        },
        {
          "client_id": "837126784767-f33tppcolr7fnqcqvnqs9419op5bt1hk.apps.googleusercontent.com",
          "client_type": 3
        }
      ],
      "api_key": [
        {
          "current_key": "AIzaSyD6GZecG3muG6RgEUguvGDWpX89yNXquV8"
        }
      ],
      "services": {
        "appinvite_service": {
          "other_platform_oauth_client": [
            {
              "client_id": "837126784767-f33tppcolr7fnqcqvnqs9419op5bt1hk.apps.googleusercontent.com",
              "client_type": 3
            }
          ]
        }
      }
    }
  ],
  "configuration_version": "1"
}